"S/N","Trans Date","Value Date","Reference","Details","Debit","Credit","Balance"
" "," "," "," ","Opening Balance"," "," ","9,417,733.07"
"0000000002","09 SEP 2019","09 SEP 2019","FT19252542282300\BNK","N10050645605NIBSSPAY Plus Fee UPPE RLINK NOVAJI547329 f","","19.50","9,417,752.57"
"0000000003","09 SEP 2019","09 SEP 2019","FT19252634407072\A32","N10050645710NIBSSPAY Plus Fee Uppe rlink Vendor547316 f","","89.50","9,417,842.07"
"0000000004","09 SEP 2019","09 SEP 2019","FT19252080847247\BNK","000025926194/TRF BY UPPER LINK LIM ITED COLLECTIONS ACC IFO UPPER LINK LIMITED COLLECTIONS ACC/MPOS SETTL","","247.75","9,418,089.82"
"0000000005","09 SEP 2019","09 SEP 2019","FT19252607289803\BNK","N10050645170NIBSSPAY Plus Fee Uppe rlink Vendor547104 f","","89.50","9,418,179.32"
"0000000006","09 SEP 2019","09 SEP 2019","FT19252208408157\BNK","N10050645483NIBSSPAY Plus Fee Uppe rlink Vendor547105 f","","89.50","9,418,268.82"
"0000000007","09 SEP 2019","09 SEP 2019","FT19252907861018\BNK","N10050645088NIBSSPAY Plus Fee Uppe rlink Vendor547218 f","","89.50","9,418,358.32"
"0000000008","09 SEP 2019","09 SEP 2019","FT19252418099004\BNK","N10050645167NIBSSPAY Plus Fee Uppe rlink Vendor547103 f","","89.50","9,418,447.82"
"0000000009","09 SEP 2019","09 SEP 2019","FT19252230871210\B49","N10050646682NIBSSPAY Plus Fee UPPE RLINK S:514816:","10.50","","9,418,437.32"
"0000000010","09 SEP 2019","09 SEP 2019","FT19252634809760\BNK","N10050647413NIBSSPAY Plus Fee Uppe rlink Limited 547480","",".02","9,418,437.34"
"0000000011","09 SEP 2019","09 SEP 2019","FT19252632984103\BNK","N10050654277NIBSSPAY Plus Fee UPPE RLINK OSUN VENDOR5474","","189.50","9,418,626.84"
"0000000012","09 SEP 2019","09 SEP 2019","FT19252438629259\BNK","N10050657023NIBSSPAY Plus Fee UPPE RLINK CORPORATE547422","","39.50","9,418,666.34"
"0000000013","09 SEP 2019","09 SEP 2019","FT19252379192068\BNK","N10050657041NIBSSPAY Plus Fee UPPE RLINK CORPORATE547421","","39.50","9,418,705.84"
"0000000014","09 SEP 2019","09 SEP 2019","FT19252120703144\BNK","N10050657535NIBSSPAY Plus Fee UPPE RLINK OSUN VENDOR5474","","389.50","9,419,095.34"
"0000000015","09 SEP 2019","09 SEP 2019","FT19252685006138\BNK","N10050657553NIBSSPAY Plus Fee UPPE RLINK CORPORATE547424","","39.50","9,419,134.84"
"0000000016","09 SEP 2019","09 SEP 2019","FT19252849028987\BNK","N10050657344NIBSSPAY Plus Fee UPPE RLINK CORPORATE547420","","39.50","9,419,174.34"
"0000000017","09 SEP 2019","09 SEP 2019","FT19252120817888\BNK","N10050657529NIBSSPAY Plus Fee UPPE RLINK CORPORATE547423","","39.50","9,419,213.84"
"0000000018","09 SEP 2019","09 SEP 2019","FT19252849000919\BNK","N10050657026NIBSSPAY Plus Fee UPPE RLINK CORPORATE547425","","355.50","9,419,569.34"
"0000000019","09 SEP 2019","09 SEP 2019","BK19252660043101\BNK","BULK ISO FEE PAYCHOICE ISW Settl 090919","","21,800.00","9,441,369.34"
"0000000020","09 SEP 2019","09 SEP 2019","FT19252060935700\BNK","N10050673906NIBSSPAY Plus Fee UPPE RLINK CORPORATE547757","","39.50","9,441,408.84"
"0000000021","09 SEP 2019","09 SEP 2019","FT19252207510603\BNK","N10050681934NIBSSPAY Plus Fee UPPE RLINK OSUN SWEEP54787","","9,000.00","9,450,408.84"
"0000000022","09 SEP 2019","09 SEP 2019","FT19252218419008\BNK","N10050682016NIBSSPAY Plus Fee UPPE RLINK OSUN SWEEP54787","","3,600.00","9,454,008.84"
"0000000023","10 SEP 2019","10 SEP 2019","FT19253214868482\BNK","N10050686305NIBSSPAY Plus Fee Uppe rlink Vendor548184 f","","89.50","9,454,098.34"
"w","w"," "," ","Closing Balance"," "," ","9,454,098.34"